{
	"lines":[
	"Powering other devices"
	,""
	," Other devices require Artron Energy."
	,"You can charge them by placing them in the Charging Panel of the Tardis Engine or use some other power source."
	]
}