{
    "parent": "block/slab_top",
    "textures": {
        "bottom": "tardis:blocks/alabaster/alabaster",
        "top": "tardis:blocks/alabaster/alabaster",
        "side": "tardis:blocks/alabaster/alabaster"
    }
}
