{
    "parent": "block/slab",
    "textures": {
        "bottom": "tardis:blocks/metal_grate",
        "top": "tardis:blocks/metal_grate",
        "side": "tardis:blocks/metal_grate_slab_side"
    }
}