{
	"credit": "Made with Blockbench",
	"texture_size": [64, 64],
	"textures": {
		"0": "tardis:blocks/telescope",
		"particle": "tardis:blocks/telescope"
	},
	"elements": [
		{
			"from": [11, 2, 5],
			"to": [13, 13, 10],
			"faces": {
				"north": {"uv": [1.5, 9, 2, 11.75], "texture": "#0"},
				"east": {"uv": [0.25, 9, 1.5, 11.75], "texture": "#0"},
				"south": {"uv": [3.25, 9, 3.75, 11.75], "texture": "#0"},
				"west": {"uv": [2, 9, 3.25, 11.75], "texture": "#0"},
				"up": {"uv": [2, 9, 1.5, 7.75], "texture": "#0"},
				"down": {"uv": [2.5, 7.75, 2, 9], "texture": "#0"}
			}
		},
		{
			"from": [3, 2, 5],
			"to": [5, 13, 10],
			"faces": {
				"north": {"uv": [1.5, 9, 2, 11.75], "texture": "#0"},
				"east": {"uv": [0.25, 9, 1.5, 11.75], "texture": "#0"},
				"south": {"uv": [3.25, 9, 3.75, 11.75], "texture": "#0"},
				"west": {"uv": [2, 9, 3.25, 11.75], "texture": "#0"},
				"up": {"uv": [2, 9, 1.5, 7.75], "texture": "#0"},
				"down": {"uv": [2.5, 7.75, 2, 9], "texture": "#0"}
			}
		},
		{
			"from": [2, 0, 2],
			"to": [14, 2, 14],
			"faces": {
				"north": {"uv": [4, 12, 7, 12.5], "texture": "#0"},
				"east": {"uv": [1, 12, 4, 12.5], "texture": "#0"},
				"south": {"uv": [10, 12, 13, 12.5], "texture": "#0"},
				"west": {"uv": [7, 12, 10, 12.5], "texture": "#0"},
				"up": {"uv": [7, 12, 4, 9], "texture": "#0"},
				"down": {"uv": [10, 9, 7, 12], "texture": "#0"}
			}
		},
		{
			"from": [4, 5.87868, -6.36396],
			"to": [12, 13.87868, -3.36396],
			"rotation": {"angle": 45, "axis": "x", "origin": [8, 8, 8]},
			"faces": {
				"north": {"uv": [1, 1, 3, 3], "texture": "#0"},
				"east": {"uv": [0.25, 1, 1, 3], "texture": "#0"},
				"south": {"uv": [3.75, 1, 5.75, 3], "texture": "#0"},
				"west": {"uv": [3, 1, 3.75, 3], "texture": "#0"},
				"up": {"uv": [3, 1, 1, 0.25], "texture": "#0"},
				"down": {"uv": [5, 0.25, 3, 1], "texture": "#0"}
			}
		},
		{
			"from": [5, 6.87868, -3.36396],
			"to": [11, 12.87868, 6.63604],
			"rotation": {"angle": 45, "axis": "x", "origin": [8, 8, 8]},
			"faces": {
				"north": {"uv": [6, 3.25, 7.5, 4.75], "texture": "#0"},
				"east": {"uv": [3.5, 3.25, 6, 4.75], "texture": "#0"},
				"south": {"uv": [10, 3.25, 11.5, 4.75], "texture": "#0"},
				"west": {"uv": [7.5, 3.25, 10, 4.75], "texture": "#0"},
				"up": {"uv": [7.5, 3.25, 6, 0.75], "texture": "#0"},
				"down": {"uv": [9, 0.75, 7.5, 3.25], "texture": "#0"}
			}
		},
		{
			"from": [2, 8.79029, 4.54765],
			"to": [14, 10.79029, 6.54765],
			"rotation": {"angle": 45, "axis": "x", "origin": [8, 8, 8]},
			"faces": {
				"north": {"uv": [4, 7, 7, 7.5], "texture": "#0"},
				"east": {"uv": [3.5, 7, 4, 7.5], "texture": "#0"},
				"south": {"uv": [7.5, 7, 10.5, 7.5], "texture": "#0"},
				"west": {"uv": [7, 7, 7.5, 7.5], "texture": "#0"},
				"up": {"uv": [7, 7, 4, 6.5], "texture": "#0"},
				"down": {"uv": [10, 6.5, 7, 7], "texture": "#0"}
			}
		},
		{
			"from": [6.5, 8.37868, 6.63604],
			"to": [9.5, 11.37868, 12.63604],
			"rotation": {"angle": 45, "axis": "x", "origin": [8, 8, 8]},
			"faces": {
				"north": {"uv": [1.75, 5, 2.5, 5.75], "texture": "#0"},
				"east": {"uv": [0.25, 5, 1.75, 5.75], "texture": "#0"},
				"south": {"uv": [4, 5, 4.75, 5.75], "texture": "#0"},
				"west": {"uv": [2.5, 5, 4, 5.75], "texture": "#0"},
				"up": {"uv": [2.5, 5, 1.75, 3.5], "texture": "#0"},
				"down": {"uv": [3.25, 3.5, 2.5, 5], "texture": "#0"}
			}
		},
		{
			"from": [6.5, 11.37868, 8.63604],
			"to": [9.5, 14.37868, 10.63604],
			"rotation": {"angle": 45, "axis": "x", "origin": [8, 8, 8]},
			"faces": {
				"north": {"uv": [0.75, 6.5, 1.5, 7.25], "texture": "#0"},
				"east": {"uv": [0.25, 6.5, 0.75, 7.25], "texture": "#0"},
				"south": {"uv": [2, 6.5, 2.75, 7.25], "texture": "#0"},
				"west": {"uv": [1.5, 6.5, 2, 7.25], "texture": "#0"},
				"up": {"uv": [1.5, 6.5, 0.75, 6], "texture": "#0"},
				"down": {"uv": [2.25, 6, 1.5, 6.5], "texture": "#0"}
			}
		},
		{
			"from": [5.5, 14.37868, 7.63604],
			"to": [10.5, 15.37868, 11.63604],
			"rotation": {"angle": 45, "axis": "x", "origin": [8, 8, 8]},
			"faces": {
				"north": {"uv": [5, 6, 6.25, 6.25], "texture": "#0"},
				"east": {"uv": [4, 6, 5, 6.25], "texture": "#0"},
				"south": {"uv": [7.25, 6, 8.5, 6.25], "texture": "#0"},
				"west": {"uv": [6.25, 6, 7.25, 6.25], "texture": "#0"},
				"up": {"uv": [6.25, 6, 5, 5], "texture": "#0"},
				"down": {"uv": [7.5, 5, 6.25, 6], "texture": "#0"}
			}
		}
	],
	"display": {
		"thirdperson_righthand": {
			"rotation": [75, 45, 0],
			"translation": [0, 2.5, 0],
			"scale": [0.375, 0.375, 0.375]
		},
		"thirdperson_lefthand": {
			"rotation": [75, 45, 0],
			"translation": [0, 2.5, 0],
			"scale": [0.375, 0.375, 0.375]
		},
		"firstperson_righthand": {
			"rotation": [0, 45, 0],
			"translation": [3.25, 0, 0],
			"scale": [0.4, 0.4, 0.4]
		},
		"firstperson_lefthand": {
			"rotation": [0, 45, 0],
			"translation": [3.25, 0, 0],
			"scale": [0.4, 0.4, 0.4]
		},
		"ground": {
			"translation": [0, 3, 0],
			"scale": [0.25, 0.25, 0.25]
		},
		"gui": {
			"rotation": [30, 225, 0],
			"translation": [-0.5, -0.75, 0],
			"scale": [0.625, 0.625, 0.625]
		},
		"head": {
			"translation": [0, 14.25, 0]
		},
		"fixed": {
			"rotation": [0, -90, 0],
			"scale": [0.5, 0.5, 0.5]
		}
	},
	"groups": [
		{
			"name": "wood",
			"origin": [8, 8, 8],
			"children": [0, 1]
		},
		{
			"name": "stone",
			"origin": [8, 8, 8],
			"children": [2]
		},
		{
			"name": "brass",
			"origin": [8, 8, 8],
			"children": [3, 4, 5, 6, 7, 8]
		}
	]
}