{
  "variants": {
    "top=true,open=true": {
      "model": "tardis:block/air_lock_up"
    },
    "top=false,open=true":{
    	"model":"tardis:block/air_lock_down"
    },
    "top=true,open=false":{
    	"model":"tardis:block/air_lock_bottom_closed"
    },
     "top=false,open=false":{
    	"model":"tardis:block/air_lock_top_closed"
    }
  }
}