{
    "variants": {
      "type=bottom": { "model": "tardis:block/tungsten_pattern_slab" },
      "type=top": { "model": "tardis:block/tungsten_pattern_slab_top" },
      "type=double": { "model": "tardis:block/tungsten_pattern" }
    }
}