{
	"type": "tardis:quantiscope",
	"repair":false,
	"ingredients":[
		{"item":"minecraft:ender_pearl"},
		{"item":"tardis:blank_upgrade"},
		{"item":"minecraft:redstone"},
		{"item":"minecraft:gold_ingot"}
	],
	"result":{
		"item":"tardis:upgrades/atrium"
	}
}