{
	"lines":[
	"Timeship Mood (Cont.)"
	,""
	,"You can measure mood using the lighting of the interior." 
	," If the lighting is of a warm colour (orange hue), the mood is high"
	,"If the lighting is a cool colour(blue hue), the mood is low."
	]
}